Foundations Module: Unit 3
…
`summarise()` has grouped output by 'stwibname', 'year'. You can override using
the `.groups` argument.

# A tibble: 198 x 6
   stwibname               year period_name total_unemployment total_labor_force
   <chr>                  <int> <chr>                    <int>             <int>
 1 A Purchase/Pennyrile ~  2022 April                     6660            168460
 2 A Purchase/Pennyrile ~  2022 August                    7341            168884
 3 A Purchase/Pennyrile ~  2022 December                  6297            168208
 4 A Purchase/Pennyrile ~  2022 February                  8109            168284
 5 A Purchase/Pennyrile ~  2022 January                   8252            168147
 6 A Purchase/Pennyrile ~  2022 July                      8106            169502
 7 A Purchase/Pennyrile ~  2022 June                      8468            170288
 8 A Purchase/Pennyrile ~  2022 March                     7562            169062
 9 A Purchase/Pennyrile ~  2022 May                       6867            168925
10 A Purchase/Pennyrile ~  2022 November                  6282            167448
# i 188 more rows
# i 1 more variable: unemployment_rate <dbl>
…
Here we see that we are piping our analytic_frame into the function group_by, which carries out the grouping operation in R. According to the documentation for group_by (run ?group_by if you are curious), this function “takes an existing tbl and converts it into a grouped tbl where operations are performed ‘by group’”. In other words, it tells R that it should treat our dataset as a bunch of smaller datasets that are separating by a certain subset of variables and that we can analyze independently.

The group_by function requires at least two arguments: the data that we want to group and the variable(s) by which to group. In this case, we use the pipe (%>%) to place the data in the first argument, and then tell group_by to group by stwibname, year, and period_name.

You might think that this function looks very similar to the GROUP BY command in SQL, and you would be right! These are two different ways to carry out the grouping fundamental data operation in two different languages.

There is one important difference to note, however. In SQL, commands have to be in a set order, so you can’t do a GROUP BY before a FROM statement for example. In R we can use commands in many different orders, as long as the logic implied by the order is correct.

In addition, in R, there is an implied SELECT statement, where R automatically includes all variables in the data in the output. We can use an equivalent select() statement in our workflow if we want to specifically limit the input data to contain only a subset of columns.

analytic_frame %>%
  group_by(stwibname, year, period_name)

# A tibble: 2,178 x 8
# Groups:   stwibname, year, period_name [198]
   area_text stwibname  year period_name unemployment_rate unemployment
   <chr>     <chr>     <int> <chr>                   <dbl>        <int>
 1 Kentucky  <NA>       2022 January                   4.5        90803
 2 Kentucky  <NA>       2022 February                  4.3        87208
 3 Kentucky  <NA>       2022 March                     4.4        90204
 4 Kentucky  <NA>       2022 April                     3.4        69639
 5 Kentucky  <NA>       2022 May                       3.8        78429
 6 Kentucky  <NA>       2022 June                      4.4        91481
 7 Kentucky  <NA>       2022 July                      4.4        89721
 8 Kentucky  <NA>       2022 August                    3.9        79092
 9 Kentucky  <NA>       2022 September                 3.5        70984
10 Kentucky  <NA>       2022 October                   3.8        76593
# i 2,168 more rows
# i 2 more variables: employment <int>, labor_force <int>
…
One question that you might have here is how summarize differs from mutate. Note that mutate creates a new variable for the existing set of observations, while summarize collapse these observations according to their group, and creates a new variable using aggregation.

analytic_frame %>%
  group_by(
    stwibname, year,  period_name
  ) %>%
  summarize(
    total_unemployment = sum(unemployment),
    total_labor_force = sum(labor_force)
  )

`summarise()` has grouped output by 'stwibname', 'year'. You can override using
the `.groups` argument.

# A tibble: 198 x 5
# Groups:   stwibname, year [22]
   stwibname               year period_name total_unemployment total_labor_force
   <chr>                  <int> <chr>                    <int>             <int>
 1 A Purchase/Pennyrile ~  2022 April                     6660            168460
 2 A Purchase/Pennyrile ~  2022 August                    7341            168884
 3 A Purchase/Pennyrile ~  2022 December                  6297            168208
 4 A Purchase/Pennyrile ~  2022 February                  8109            168284
 5 A Purchase/Pennyrile ~  2022 January                   8252            168147
 6 A Purchase/Pennyrile ~  2022 July                      8106            169502
 7 A Purchase/Pennyrile ~  2022 June                      8468            170288
 8 A Purchase/Pennyrile ~  2022 March                     7562            169062
 9 A Purchase/Pennyrile ~  2022 May                       6867            168925
10 A Purchase/Pennyrile ~  2022 November                  6282            167448
# i 188 more rows
…
`summarise()` has grouped output by 'stwibname', 'year'. You can override using
the `.groups` argument.

# A tibble: 198 x 5
# Groups:   stwibname, year [22]
   stwibname               year period_name total_unemployment total_labor_force
   <chr>                  <int> <chr>                    <int>             <int>
 1 A Purchase/Pennyrile ~  2022 April                     6660            168460
 2 A Purchase/Pennyrile ~  2022 August                    7341            168884
 3 A Purchase/Pennyrile ~  2022 December                  6297            168208
 4 A Purchase/Pennyrile ~  2022 February                  8109            168284
 5 A Purchase/Pennyrile ~  2022 January                   8252            168147
 6 A Purchase/Pennyrile ~  2022 July                      8106            169502
 7 A Purchase/Pennyrile ~  2022 June                      8468            170288
 8 A Purchase/Pennyrile ~  2022 March                     7562            169062
 9 A Purchase/Pennyrile ~  2022 May                       6867            168925
10 A Purchase/Pennyrile ~  2022 November                  6282            167448
# i 188 more rows
…
`summarise()` has grouped output by 'stwibname', 'year'. You can override using
the `.groups` argument.

# A tibble: 198 x 6
   stwibname               year period_name total_unemployment total_labor_force
   <chr>                  <int> <chr>                    <int>             <int>
 1 A Purchase/Pennyrile ~  2022 April                     6660            168460
 2 A Purchase/Pennyrile ~  2022 August                    7341            168884
 3 A Purchase/Pennyrile ~  2022 December                  6297            168208
 4 A Purchase/Pennyrile ~  2022 February                  8109            168284
 5 A Purchase/Pennyrile ~  2022 January                   8252            168147
 6 A Purchase/Pennyrile ~  2022 July                      8106            169502
 7 A Purchase/Pennyrile ~  2022 June                      8468            170288
 8 A Purchase/Pennyrile ~  2022 March                     7562            169062
 9 A Purchase/Pennyrile ~  2022 May                       6867            168925
10 A Purchase/Pennyrile ~  2022 November                  6282            167448
# i 188 more rows
# i 1 more variable: unemployment_rate <dbl>
…
